id,name,complaints,branch,score_churn
225,Sophia,1.4,0,0.1
105,Mason,1.4,0,0.2
45,Sophia,5.5,2,1.8
288,Ava,5.2,2,2.0
113,Ava,1.6,0,0.6
163,Mason,3.9,1,1.4
238,Ryan,3.3,1,1.0
164,Sophia,1.5,0,0.4
148,Sophia,4.4,1,1.4
30,Sophia,1.4,0,0.1
157,Andrew,5.5,2,2.1
155,Sophia,1.9,0,0.4
178,Sophia,1.6,0,0.2
142,Ryan,3.9,1,1.2
267,Mason,5.8,2,2.2
191,Grace,4.6,1,1.3
101,Sophia,1.5,0,0.2
151,Mason,1.7,0,0.3
94,Mason,6.1,2,2.5
136,Mason,1.3,0,0.3
70,Alden,4.0,1,1.2
191,Grace,4.6,1,1.3
168,Ava,1.6,0,0.6
255,Sophia,4.4,1,1.4
275,Mason,1.5,0,0.2
79,Lilian,1.5,0,0.4
19,Ryan,4.9,1,1.5
289,Lilian,1.5,0,0.4
234,Ryan,4.2,1,1.5
207,Ava,5.2,2,2.0
119,Alden,5.7,2,2.5
153,Ryan,4.9,1,1.5
99,Ryan,6.9,2,2.3
60,Mason,4.2,1,1.3
155,Sophia,1.9,0,0.4
19,Ryan,4.9,1,1.5
240,Grace,4.6,1,1.3
117,Mason,1.4,0,0.2
10,Ava,5.6,2,2.2
21,Ava,5.7,2,2.3
274,Ryan,4.4,1,1.4
219,Mason,1.7,0,0.3
92,Lilian,3.5,1,1.0
292,Grace,4.2,1,1.2
245,Ryan,3.3,1,1.0
117,Mason,1.4,0,0.2
6,Sophia,1.4,0,0.1
284,Andrew,5.5,2,2.1
283,Grace,4.6,1,1.3
54,Alden,5.7,2,2.5
253,Mason,4.2,1,1.3
205,Sophia,1.5,0,0.4
30,Sophia,1.4,0,0.1
63,Ava,5.1,2,1.9
107,Mason,4.0,1,1.3
247,Ryan,4.9,1,1.5
155,Sophia,1.9,0,0.4
292,Grace,4.2,1,1.2
244,Sophia,5.5,2,1.8
135,Mason,6.1,2,2.5
186,Ava,1.6,0,0.6
13,Mason,1.4,0,0.2
209,Mason,3.9,1,1.4
274,Ryan,4.4,1,1.4
157,Andrew,5.5,2,2.1
32,Mason,3.9,1,1.4
251,Mason,3.9,1,1.1
18,Sophia,4.8,2,1.8
225,Sophia,1.4,0,0.1
203,Alden,5.7,2,2.5
231,Grace,4.6,1,1.3
11,Lilian,3.5,1,1.0
109,Ava,1.6,0,0.6
185,Mason,3.9,1,1.1
87,Ava,5.2,2,2.0
134,Ava,1.6,0,0.6
262,Ava,5.6,2,1.4
113,Ava,1.6,0,0.6
215,Lilian,4.7,1,1.2
215,Lilian,4.7,1,1.2
149,Sophia,1.5,0,0.4
28,Andrew,5.5,2,2.1
100,Sophia,1.5,0,0.4
282,Lilian,1.5,0,0.4
61,Sophia,1.4,0,0.1
5,Sophia,1.6,0,0.2
6,Sophia,1.4,0,0.1
197,Alden,4.0,1,1.2
28,Andrew,5.5,2,2.1
2,Sophia,1.5,0,0.4
266,Ava,5.6,2,2.2
136,Mason,1.3,0,0.3
143,Mason,3.9,1,1.4
12,Ava,5.7,2,2.3
29,Mason,1.7,0,0.3
79,Lilian,1.5,0,0.4
279,Ryan,1.5,0,0.1
31,Andrew,5.5,2,2.1
44,Ava,5.7,2,2.3
107,Mason,4.0,1,1.3
178,Sophia,1.6,0,0.2
290,Mason,1.3,0,0.3
276,Ava,5.1,2,1.9
171,Mason,1.7,0,0.3
285,Ryan,3.9,1,1.2
251,Mason,3.9,1,1.1
187,Ava,5.6,2,2.2
256,Sophia,4.2,1,1.3
264,Lilian,4.7,1,1.2
47,Sophia,5.5,2,1.8
43,Sophia,1.5,0,0.4
58,Lilian,4.7,1,1.2
299,Andrew,5.5,2,2.1
139,Mason,4.0,1,1.3
158,Sophia,5.6,2,2.1
37,Ryan,4.2,1,1.5
185,Mason,3.9,1,1.1
110,Ava,5.7,2,2.3
199,Lilian,4.7,1,1.2
61,Sophia,1.4,0,0.1
30,Sophia,1.4,0,0.1
260,Ryan,4.2,1,1.5
221,Ava,5.7,2,2.3
38,Lilian,1.5,0,0.4
76,Sophia,5.5,2,1.8
40,Mason,6.1,2,2.5
199,Lilian,4.7,1,1.2
31,Andrew,5.5,2,2.1
269,Sophia,4.4,1,1.4
29,Mason,1.7,0,0.3
170,Sophia,4.2,1,1.3
183,Mason,4.2,1,1.3
70,Alden,4.0,1,1.2
18,Sophia,4.8,2,1.8
292,Grace,4.2,1,1.2
154,Ryan,4.2,1,1.5
74,Sophia,4.8,2,1.8
87,Ava,5.2,2,2.0
107,Mason,4.0,1,1.3
72,Alden,4.0,1,1.2
43,Sophia,1.5,0,0.4
27,Alden,5.7,2,2.5
288,Ava,5.2,2,2.0
164,Sophia,1.5,0,0.4
143,Mason,3.9,1,1.4
28,Andrew,5.5,2,2.1
44,Ava,5.7,2,2.3
47,Sophia,5.5,2,1.8
221,Ava,5.7,2,2.3
295,Mason,4.0,1,1.3
106,Mason,1.7,0,0.3
189,Ryan,4.9,1,1.5
137,Ava,5.7,2,2.3
219,Mason,1.7,0,0.3
216,Ryan,3.9,1,1.2
206,Sophia,1.5,0,0.2
287,Mason,3.9,1,1.4
140,Sophia,1.6,0,0.2
81,Ava,5.6,2,2.2
1,Ava,5.6,2,1.4
263,Sophia,1.4,0,0.1
14,Alden,4.0,1,1.2
144,Ava,5.6,2,2.2
42,Sophia,4.8,2,1.8
98,Ryan,3.3,1,1.0
244,Sophia,5.5,2,1.8
237,Ava,5.6,2,1.4
150,Ryan,3.9,1,1.2
41,Ryan,4.2,1,1.5
181,Mason,6.1,2,2.5
44,Ava,5.7,2,2.3
269,Sophia,4.4,1,1.4
55,Ryan,3.3,1,1.0
240,Grace,4.6,1,1.3
202,Ryan,1.5,0,0.1
102,Alden,5.7,2,2.5
200,Lilian,1.5,0,0.4
149,Sophia,1.5,0,0.4
28,Andrew,5.5,2,2.1
164,Sophia,1.5,0,0.4
129,Sophia,1.6,0,0.2
160,Lilian,4.7,1,1.2
3,Mason,4.0,1,1.3
218,Ava,5.6,2,1.4
11,Lilian,3.5,1,1.0
17,Mason,1.5,0,0.2
69,Sophia,4.8,2,1.8
212,Andrew,5.0,2,1.5
98,Ryan,3.3,1,1.0
223,Mason,4.2,1,1.3
105,Mason,1.4,0,0.2
202,Ryan,1.5,0,0.1
247,Ryan,4.9,1,1.5
1,Ava,5.6,2,1.4
229,Lilian,1.5,0,0.4
293,Andrew,5.5,2,2.1
95,Lilian,1.5,0,0.4
208,Andrew,5.5,2,2.1
237,Ava,5.6,2,1.4
51,Mason,1.9,0,0.2
220,Grace,4.2,1,1.2
268,Andrew,5.5,2,2.1
6,Sophia,1.4,0,0.1
229,Lilian,1.5,0,0.4
217,Sophia,1.6,0,0.2
252,Grace,1.4,0,0.3
112,Lilian,1.5,0,0.4
87,Ava,5.2,2,2.0
5,Sophia,1.6,0,0.2
284,Andrew,5.5,2,2.1
41,Ryan,4.2,1,1.5
165,Ryan,3.9,1,1.2
100,Sophia,1.5,0,0.4
32,Mason,3.9,1,1.4
73,Ryan,4.5,1,1.5
280,Ava,5.6,2,2.2
23,Mason,5.8,2,2.2
254,Ryan,4.5,1,1.5
289,Lilian,1.5,0,0.4
138,Sophia,4.2,1,1.3
8,Lilian,3.5,1,1.0
21,Ava,5.7,2,2.3
171,Mason,1.7,0,0.3
3,Mason,4.0,1,1.3
44,Ava,5.7,2,2.3
292,Grace,4.2,1,1.2
239,Mason,4.2,1,1.3
168,Ava,1.6,0,0.6
268,Andrew,5.5,2,2.1
211,Alden,4.0,1,1.2
67,Sophia,1.5,0,0.4
287,Mason,3.9,1,1.4
81,Ava,5.6,2,2.2
162,Mason,1.7,0,0.3
183,Mason,4.2,1,1.3
108,Andrew,5.5,2,2.1
119,Alden,5.7,2,2.5
280,Ava,5.6,2,2.2
175,Ava,5.6,2,2.2
295,Mason,4.0,1,1.3
190,Alden,5.7,2,2.5
58,Lilian,4.7,1,1.2
46,Ava,1.6,0,0.6
263,Sophia,1.4,0,0.1
88,Sophia,1.5,0,0.3
52,Mason,4.2,1,1.3
107,Mason,4.0,1,1.3
290,Mason,1.3,0,0.3
128,Sophia,1.5,0,0.3
115,Ryan,3.3,1,1.0
52,Mason,4.2,1,1.3
181,Mason,6.1,2,2.5
61,Sophia,1.4,0,0.1
183,Mason,4.2,1,1.3
148,Sophia,4.4,1,1.4
288,Ava,5.2,2,2.0
143,Mason,3.9,1,1.4
65,Ryan,3.3,1,1.0
257,Ava,5.1,2,1.9
41,Ryan,4.2,1,1.5
225,Sophia,1.4,0,0.1
25,Ryan,4.5,1,1.5
257,Ava,5.1,2,1.9
30,Sophia,1.4,0,0.1
220,Grace,4.2,1,1.2
167,Sophia,4.8,2,1.8
286,Mason,1.4,0,0.2
44,Ava,5.7,2,2.3
153,Ryan,4.9,1,1.5
152,Sophia,4.4,1,1.4
58,Lilian,4.7,1,1.2
70,Alden,4.0,1,1.2
132,Ryan,6.9,2,2.3
118,Ava,1.6,0,0.6
254,Ryan,4.5,1,1.5
210,Mason,3.9,1,1.1
42,Sophia,4.8,2,1.8
56,Sophia,1.6,0,0.2
148,Sophia,4.4,1,1.4
290,Mason,1.3,0,0.3
181,Mason,6.1,2,2.5
103,Grace,1.4,0,0.3
289,Lilian,1.5,0,0.4
119,Alden,5.7,2,2.5
254,Ryan,4.5,1,1.5
184,Lilian,1.5,0,0.4
1,Ava,5.6,2,1.4
277,Mason,1.5,0,0.2
96,Ava,5.6,2,1.4
299,Andrew,5.5,2,2.1
50,Alden,4.0,1,1.2
100,Sophia,1.5,0,0.4
207,Ava,5.2,2,2.0
244,Sophia,5.5,2,1.8
293,Andrew,5.5,2,2.1
254,Ryan,4.5,1,1.5
127,Grace,1.4,0,0.3
227,Sophia,5.5,2,1.8
122,Grace,4.6,1,1.3
69,Sophia,4.8,2,1.8
